[
  "\"\"",
  "#",
  "$",
  "''",
  ",",
  "-LRB-",
  "-RRB-",
  ".",
  ":",
  "ADD",
  "AFX",
  "BES",
  "CC",
  "CD",
  "DT",
  "EX",
  "FW",
  "GW",
  "HVS",
  "HYPH",
  "IN",
  "JJ",
  "JJR",
  "JJS",
  "LS",
  "MD",
  "NFP",
  "NIL",
  "NN",
  "NNP",
  "NNPS",
  "NNS",
  "PDT",
  "PRP",
  "PRP$",
  "RB",
  "RBR",
  "RBS",
  "RP",
  "SP",
  "TO",
  "UH",
  "VB",
  "VBD",
  "VBG",
  "VBN",
  "VBP",
  "VBZ",
  "WDT",
  "WP",
  "WP$",
  "WRB",
  "XX",
  "_SP",
  "``",
  "-PRON-",
  "be",
  "\t",
  "en",
  "\n",
  " ",
  "\")",
  "\"",
  "'",
  "'Cause",
  "because",
  "'cause",
  "use",
  "'Xxxxx",
  "'Cos",
  "'cos",
  "Cos",
  "'Xxx",
  "'Coz",
  "'coz",
  "Coz",
  "'Cuz",
  "'cuz",
  "Cuz",
  "'S",
  "'s",
  "'X",
  "'bout",
  "about",
  "out",
  "'xxxx",
  "cos",
  "'xxx",
  "coz",
  "cuz",
  "'d",
  "'x",
  "'em",
  "them",
  "'xx",
  "'ll",
  "will",
  "'nuff",
  "enough",
  "uff",
  "'re",
  "are",
  "(*_*)",
  "(",
  "_*)",
  "(-8",
  "(-d",
  "(-:",
  "(-;",
  "(-_-)",
  "_-)",
  "(._.)",
  "_.)",
  "(:",
  "(;",
  "(=",
  "(>_<)",
  "_<)",
  "(^_^)",
  "_^)",
  "(o:",
  "(x:",
  "(\u00ac_\u00ac)",
  "_\u00ac)",
  "(\u0ca0_\u0ca0)",
  "_\u0ca0)",
  "(x_x)",
  "(\u256f\u00b0\u25a1\u00b0\uff09\u256f\ufe35\u253b\u2501\u253b",
  "\u253b\u2501\u253b",
  ")-:",
  ")",
  "):",
  "-_-",
  "-",
  "-__-",
  "__-",
  "._.",
  "0.0",
  "0",
  "d.d",
  "0.o",
  "d.x",
  "0_0",
  "d_d",
  "0_o",
  "d_x",
  "10",
  "1",
  "dd",
  "a.m.",
  "a",
  ".m.",
  "x.x.",
  "am",
  "xx",
  "p.m.",
  "p",
  "pm",
  "11",
  "12",
  "d",
  "2",
  "3",
  "4",
  "5",
  "6",
  "7",
  "8)",
  "8",
  "d)",
  "8-)",
  "d-)",
  "8-D",
  "8-d",
  "d-X",
  "8D",
  "8d",
  "dX",
  "9",
  ":'(",
  ":')",
  ":'-(",
  "'-(",
  ":'-)",
  "'-)",
  ":(",
  ":((",
  ":(((",
  "(((",
  ":()",
  ":)",
  ":))",
  ":)))",
  ")))",
  ":*",
  ":-(",
  ":-((",
  "-((",
  ":-(((",
  ":-)",
  ":-))",
  "-))",
  ":-)))",
  ":-*",
  ":-/",
  ":-0",
  ":-d",
  ":-3",
  ":->",
  ":-D",
  ":-X",
  ":-O",
  ":-o",
  ":-P",
  ":-p",
  ":-x",
  ":-]",
  ":-|",
  ":-}",
  ":/",
  ":0",
  ":d",
  ":1",
  ":3",
  ":>",
  ":D",
  ":X",
  ":O",
  ":o",
  ":P",
  ":p",
  ":x",
  ":]",
  ":o)",
  ":x)",
  ":|",
  ":}",
  ":\u2019(",
  ":\u2019)",
  ":\u2019-(",
  "\u2019-(",
  ":\u2019-)",
  "\u2019-)",
  ";)",
  ";",
  ";-)",
  ";-D",
  ";-d",
  ";-X",
  ";D",
  ";d",
  ";X",
  ";_;",
  "<.<",
  "<",
  "</3",
  "</d",
  "<3",
  "<d",
  "<33",
  "<dd",
  "<333",
  "333",
  "<ddd",
  "<space>",
  "ce>",
  "<xxxx>",
  "=(",
  "=",
  "=)",
  "=/",
  "=3",
  "=d",
  "=D",
  "=X",
  "=|",
  ">.<",
  ">",
  ">.>",
  ">:(",
  ">:o",
  ">:x",
  "><(((*>",
  "(*>",
  "@_@",
  "@",
  "Adm.",
  "adm.",
  "A",
  "dm.",
  "Xxx.",
  "Ai",
  "ai",
  "Xx",
  "n't",
  "not",
  "n",
  "x'x",
  "nt",
  "n\u2019t",
  "x\u2019x",
  "Ak.",
  "Alaska",
  "ak.",
  "Xx.",
  "Ala.",
  "Alabama",
  "ala.",
  "la.",
  "Apr.",
  "April",
  "apr.",
  "pr.",
  "Are",
  "Xxx",
  "Ariz.",
  "Arizona",
  "ariz.",
  "iz.",
  "Xxxx.",
  "Ark.",
  "Arkansas",
  "ark.",
  "rk.",
  "Aug.",
  "August",
  "aug.",
  "ug.",
  "Bros.",
  "bros.",
  "B",
  "os.",
  "C++",
  "c++",
  "C",
  "X++",
  "Calif.",
  "California",
  "calif.",
  "if.",
  "Xxxxx.",
  "Ca",
  "can",
  "ca",
  "'ve",
  "have",
  "Can",
  "xxx",
  "ve",
  "v",
  "\u2019ve",
  "\u2019",
  "\u2019xx",
  "Co.",
  "co.",
  "Colo.",
  "Colorado",
  "colo.",
  "lo.",
  "Conn.",
  "Connecticut",
  "conn.",
  "nn.",
  "Corp.",
  "corp.",
  "rp.",
  "Could",
  "could",
  "uld",
  "Xxxxx",
  "D.C.",
  "d.c.",
  "D",
  ".C.",
  "X.X.",
  "Dare",
  "dare",
  "Xxxx",
  "Dec.",
  "December",
  "dec.",
  "ec.",
  "Del.",
  "Delaware",
  "del.",
  "el.",
  "Did",
  "do",
  "did",
  "Does",
  "does",
  "oes",
  "Doin",
  "doing",
  "doin",
  "oin",
  "Doin'",
  "doin'",
  "in'",
  "Xxxx'",
  "Doin\u2019",
  "doin\u2019",
  "in\u2019",
  "Xxxx\u2019",
  "Do",
  "Dr.",
  "dr.",
  "E.G.",
  "e.g.",
  "E",
  ".G.",
  "E.g.",
  ".g.",
  "X.x.",
  "Feb.",
  "February",
  "feb.",
  "F",
  "eb.",
  "Fla.",
  "Florida",
  "fla.",
  "Ga.",
  "Georgia",
  "ga.",
  "G",
  "Gen.",
  "gen.",
  "en.",
  "Goin",
  "go",
  "going",
  "goin",
  "Goin'",
  "goin'",
  "Goin\u2019",
  "goin\u2019",
  "Gon",
  "gon",
  "na",
  "to",
  "Got",
  "got",
  "ta",
  "t",
  "Gov.",
  "gov.",
  "ov.",
  "Had",
  "had",
  "H",
  "Has",
  "has",
  "Have",
  "ave",
  "Havin",
  "having",
  "havin",
  "vin",
  "Havin'",
  "havin'",
  "Xxxxx'",
  "Havin\u2019",
  "havin\u2019",
  "Xxxxx\u2019",
  "He",
  "he",
  "would",
  "x",
  "ll",
  "l",
  "s",
  "\u2019d",
  "\u2019x",
  "\u2019ll",
  "\u2019s",
  "How",
  "how",
  "'y",
  "you",
  "re",
  "r",
  "\u2019y",
  "\u2019re",
  "I",
  "i",
  "'m",
  "going to",
  "gonna",
  "I.E.",
  "i.e.",
  ".E.",
  "I.e.",
  ".e.",
  "Ia.",
  "Iowa",
  "ia.",
  "Id.",
  "Idaho",
  "id.",
  "Ill.",
  "Illinois",
  "ill.",
  "ll.",
  "m",
  "Inc.",
  "inc.",
  "nc.",
  "Ind.",
  "Indiana",
  "ind.",
  "nd.",
  "Is",
  "is",
  "It",
  "it",
  "\u2019m",
  "Jan.",
  "January",
  "jan.",
  "J",
  "an.",
  "Jr.",
  "jr.",
  "Jul.",
  "July",
  "jul.",
  "ul.",
  "Jun.",
  "June",
  "jun.",
  "un.",
  "Kan.",
  "Kansas",
  "kan.",
  "K",
  "Kans.",
  "kans.",
  "ns.",
  "Ky.",
  "Kentucky",
  "ky.",
  "La.",
  "Louisiana",
  "L",
  "Let",
  "let",
  "us",
  "Lovin",
  "love",
  "loving",
  "lovin",
  "Lovin'",
  "lovin'",
  "Lovin\u2019",
  "lovin\u2019",
  "Ltd.",
  "ltd.",
  "td.",
  "Ma'am",
  "madam",
  "ma'am",
  "M",
  "'am",
  "Xx'xx",
  "Mar.",
  "March",
  "mar.",
  "ar.",
  "Mass.",
  "Massachusetts",
  "mass.",
  "ss.",
  "May.",
  "May",
  "may.",
  "ay.",
  "may",
  "Ma\u2019am",
  "ma\u2019am",
  "\u2019am",
  "Xx\u2019xx",
  "Md.",
  "md.",
  "Messrs.",
  "messrs.",
  "rs.",
  "Mich.",
  "Michigan",
  "mich.",
  "ch.",
  "Might",
  "might",
  "ght",
  "Minn.",
  "Minnesota",
  "minn.",
  "Miss.",
  "Mississippi",
  "miss.",
  "Mo.",
  "mo.",
  "Mont.",
  "mont.",
  "nt.",
  "Mr.",
  "mr.",
  "Mrs.",
  "mrs.",
  "Ms.",
  "ms.",
  "Mt.",
  "Mount",
  "mt.",
  "Must",
  "must",
  "ust",
  "N.C.",
  "North Carolina",
  "n.c.",
  "N",
  "N.D.",
  "North Dakota",
  "n.d.",
  ".D.",
  "N.H.",
  "New Hampshire",
  "n.h.",
  ".H.",
  "N.J.",
  "New Jersey",
  "n.j.",
  ".J.",
  "N.M.",
  "New Mexico",
  "n.m.",
  ".M.",
  "N.Y.",
  "New York",
  "n.y.",
  ".Y.",
  "Neb.",
  "Nebraska",
  "neb.",
  "Nebr.",
  "nebr.",
  "br.",
  "Need",
  "need",
  "eed",
  "Nev.",
  "Nevada",
  "nev.",
  "ev.",
  "Not",
  "Nothin",
  "nothing",
  "nothin",
  "hin",
  "Nothin'",
  "nothin'",
  "Nothin\u2019",
  "nothin\u2019",
  "Nov.",
  "November",
  "nov.",
  "Nuthin",
  "nuthin",
  "Nuthin'",
  "nuthin'",
  "Nuthin\u2019",
  "nuthin\u2019",
  "O'clock",
  "o'clock",
  "O",
  "ock",
  "X'xxxx",
  "O.O",
  "o.o",
  "X.X",
  "O.o",
  "X.x",
  "O_O",
  "o_o",
  "X_X",
  "O_o",
  "X_x",
  "Oct.",
  "October",
  "oct.",
  "ct.",
  "Okla.",
  "Oklahoma",
  "okla.",
  "Ol",
  "old",
  "ol",
  "Ol'",
  "ol'",
  "Xx'",
  "Ol\u2019",
  "ol\u2019",
  "Xx\u2019",
  "Ore.",
  "Oregon",
  "ore.",
  "re.",
  "Ought",
  "ought",
  "O\u2019clock",
  "o\u2019clock",
  "X\u2019xxxx",
  "Pa.",
  "Pennsylvania",
  "pa.",
  "P",
  "Ph.D.",
  "ph.d.",
  "Xx.X.",
  "Rep.",
  "rep.",
  "R",
  "ep.",
  "Rev.",
  "rev.",
  "S.C.",
  "South Carolina",
  "s.c.",
  "S",
  "Sen.",
  "sen.",
  "Sep.",
  "September",
  "sep.",
  "Sept.",
  "sept.",
  "pt.",
  "Sha",
  "shall",
  "sha",
  "She",
  "she",
  "Should",
  "should",
  "Somethin",
  "something",
  "somethin",
  "Somethin'",
  "somethin'",
  "Somethin\u2019",
  "somethin\u2019",
  "St.",
  "st.",
  "Tenn.",
  "Tennessee",
  "tenn.",
  "T",
  "That",
  "that",
  "hat",
  "There",
  "there",
  "ere",
  "They",
  "they",
  "hey",
  "V.V",
  "v.v",
  "V",
  "V_V",
  "v_v",
  "Va.",
  "Virginia",
  "va.",
  "Wash.",
  "Washington",
  "wash.",
  "W",
  "sh.",
  "Was",
  "was",
  "We",
  "we",
  "Were",
  "were",
  "What",
  "what",
  "When",
  "when",
  "hen",
  "Where",
  "where",
  "Who",
  "who",
  "Why",
  "why",
  "Wis.",
  "Wisconsin",
  "wis.",
  "is.",
  "Wo",
  "wo",
  "Would",
  "XD",
  "xd",
  "XDD",
  "xdd",
  "XXX",
  "You",
  "Y",
  "[-:",
  "[",
  "[:",
  "\\\")",
  "\\",
  "\\n",
  "\\x",
  "\\t",
  "^_^",
  "^",
  "^__^",
  "__^",
  "^___^",
  "a.",
  "x.",
  "and/or",
  "/or",
  "xxx/xx",
  "b.",
  "b",
  "c.",
  "c",
  "cause",
  "xxxx",
  "xx.",
  "d.",
  "xxxx'",
  "xxxx\u2019",
  "e.",
  "e",
  "em",
  "f.",
  "f",
  "g.",
  "g",
  "h.",
  "h",
  "i.",
  "j.",
  "j",
  "k.",
  "k",
  "l.",
  "m.",
  "xx'xx",
  "xx\u2019xx",
  "n.",
  "nuff",
  "o",
  "x'xxxx",
  "o.",
  "o.0",
  "x.d",
  "o.O",
  "x.X",
  "x.x",
  "o_0",
  "x_d",
  "o_O",
  "x_X",
  "x_x",
  "xx'",
  "xx\u2019",
  "x\u2019xxxx",
  "p.",
  "q.",
  "q",
  "r.",
  "s.",
  "t.",
  "u.",
  "u",
  "v.",
  "vs.",
  "w.",
  "w",
  "w/o",
  "without",
  "x/x",
  "xD",
  "xX",
  "xDD",
  "xXX",
  "y'",
  "y",
  "x'",
  "all",
  "y.",
  "y\u2019",
  "x\u2019",
  "z.",
  "z",
  "\u00a0",
  "  ",
  "\u00af\\(\u30c4)/\u00af",
  "\u00af",
  ")/\u00af",
  "\u00af\\(x)/\u00af",
  "\u00e4.",
  "\u00e4",
  "\u00f6.",
  "\u00f6",
  "\u00fc.",
  "\u00fc",
  "\u0ca0_\u0ca0",
  "\u0ca0",
  "\u0ca0\ufe35\u0ca0",
  "x\ufe35x",
  "\u2014",
  "\u2018S",
  "\u2018s",
  "\u2018",
  "\u2018X",
  "\u2018x",
  "\u2019Cause",
  "\u2019cause",
  "\u2019Xxxxx",
  "\u2019Cos",
  "\u2019cos",
  "\u2019Xxx",
  "\u2019Coz",
  "\u2019coz",
  "\u2019Cuz",
  "\u2019cuz",
  "\u2019S",
  "\u2019X",
  "\u2019bout",
  "\u2019xxxx",
  "\u2019xxx",
  "\u2019em",
  "\u2019nuff",
  "\u2019\u2019",
  "this",
  "those",
  "these",
  "This",
  "Those",
  "These",
  "if",
  "as",
  "of",
  "for",
  "before",
  "in",
  "while",
  "after",
  "since",
  "like",
  "with",
  "so",
  "by",
  "on",
  "than",
  "whether",
  "although",
  "from",
  "though",
  "until",
  "unless",
  "once",
  "at",
  "into",
  "over",
  "upon",
  "till",
  "whereas",
  "beyond",
  "whilst",
  "except",
  "despite",
  "wether",
  "then",
  "but",
  "becuse",
  "whie",
  "below",
  "against",
  "w/out",
  "toward",
  "albeit",
  "save",
  "besides",
  "becouse",
  "til",
  "ask",
  "i'd",
  "near",
  "seince",
  "towards",
  "tho",
  "sice",
  "If",
  "As",
  "Because",
  "Of",
  "For",
  "Before",
  "In",
  "While",
  "After",
  "Since",
  "Like",
  "With",
  "So",
  "To",
  "By",
  "On",
  "About",
  "Than",
  "Whether",
  "Although",
  "From",
  "Though",
  "Until",
  "Unless",
  "Once",
  "Without",
  "At",
  "Into",
  "Cause",
  "Over",
  "Upon",
  "Till",
  "Whereas",
  "Beyond",
  "Whilst",
  "Except",
  "Despite",
  "Wether",
  "Then",
  "But",
  "Becuse",
  "Whie",
  "Below",
  "Against",
  "W/Out",
  "Toward",
  "Albeit",
  "Save",
  "Besides",
  "Becouse",
  "Til",
  "Ask",
  "I'D",
  "Out",
  "Near",
  "Seince",
  "Towards",
  "Tho",
  "Sice",
  "Will",
  "anyone",
  "anything",
  "someone",
  "everything",
  "everyone",
  "everybody",
  "nobody",
  "somebody",
  "anybody",
  "any1",
  "Something",
  "Anyone",
  "Anything",
  "Nothing",
  "Someone",
  "Everything",
  "Everyone",
  "Everybody",
  "Nobody",
  "Somebody",
  "Anybody",
  "Any1",
  "me",
  "him",
  "her",
  "mine",
  "his",
  "hers",
  "its",
  "ours",
  "yours",
  "theirs",
  "myself",
  "yourself",
  "himself",
  "herself",
  "itself",
  "themself",
  "ourselves",
  "yourselves",
  "themselves",
  "Me",
  "Him",
  "Her",
  "Us",
  "Them",
  "Mine",
  "His",
  "Hers",
  "Its",
  "Ours",
  "Yours",
  "Theirs",
  "Myself",
  "Yourself",
  "Himself",
  "Herself",
  "Itself",
  "Themself",
  "Ourselves",
  "Yourselves",
  "Themselves",
  "my",
  "your",
  "our",
  "their",
  "My",
  "Your",
  "Our",
  "Their",
  "N'T",
  "Nt",
  "N\u2019T",
  "get",
  "Be",
  "Get",
  "Am",
  "'Ve",
  "been",
  "Been",
  "being",
  "Being",
  "'Re",
  "'M",
  "'D",
  "v.s.",
  ".s.",
  "ROOT",
  "compound",
  "nummod",
  "predet",
  "pobj||prep",
  "advmod||conj",
  "dobj||xcomp",
  "nsubj||ccomp",
  "dative",
  "advmod||xcomp",
  "dobj||ccomp",
  "dobj||conj",
  "prep||conj",
  "prep||nsubj",
  "prep||dobj",
  "advmod||ccomp",
  "subtok",
  "case",
  "acl||dobj",
  "acl||nsubj",
  "appos||nsubj",
  "relcl||dobj",
  "relcl||nsubj",
  "appos||dobj",
  "prep||nsubjpass",
  "prep||advmod",
  "prep||acomp",
  "relcl||pobj",
  "acl||nsubjpass",
  "prep||pobj",
  "relcl||nsubjpass",
  "appos||nsubjpass",
  "advcl||nsubj",
  "FAC",
  "CITATION",
  "Candidate",
  "]",
  "2019",
  "019",
  "dddd",
  "EWHC",
  "ewhc",
  "WHC",
  "XXXX",
  "548",
  "ddd",
  "QB",
  "qb",
  "Q",
  "2005",
  "005",
  "AC",
  "ac",
  "134",
  "1957",
  "957",
  "WLR",
  "wlr",
  "583",
  "1984",
  "984",
  "634"
]